{
  "ID": "69e810ad-9263-4ae7-91ff-43df970a543b",
  "Version": "2.3.3.0",
  "Name": "UILayer",
  "Content": {
    "Content": {
      "Animation": {
        "Duration": 60,
        "Speed": 1.0,
        "Timelines": [
          {
            "ActionTag": 1760187276,
            "Property": "Position",
            "Frames": [
              {
                "X": -160.0,
                "Y": 568.0,
                "FrameIndex": 0,
                "EasingData": {
                  "Type": 26
                },
                "ctype": "PointFrameData"
              },
              {
                "X": 160.0,
                "Y": 568.0,
                "FrameIndex": 30,
                "EasingData": {
                  "Type": 26
                },
                "ctype": "PointFrameData"
              },
              {
                "X": -160.0,
                "Y": 568.0,
                "FrameIndex": 60,
                "EasingData": {
                  "Type": 26
                },
                "ctype": "PointFrameData"
              }
            ],
            "ctype": "TimelineData"
          },
          {
            "ActionTag": 1760187276,
            "Property": "Scale",
            "Frames": [
              {
                "X": 1.0,
                "Y": 1.0,
                "FrameIndex": 0,
                "EasingData": {
                  "Type": 26
                },
                "ctype": "ScaleValueFrameData"
              },
              {
                "X": 1.0,
                "Y": 1.0,
                "FrameIndex": 30,
                "EasingData": {
                  "Type": 26
                },
                "ctype": "ScaleValueFrameData"
              },
              {
                "X": 1.0,
                "Y": 1.0,
                "FrameIndex": 60,
                "EasingData": {
                  "Type": 26
                },
                "ctype": "ScaleValueFrameData"
              }
            ],
            "ctype": "TimelineData"
          },
          {
            "ActionTag": 1760187276,
            "Property": "RotationSkew",
            "Frames": [
              {
                "X": 0.0,
                "Y": 0.0,
                "FrameIndex": 0,
                "EasingData": {
                  "Type": 26
                },
                "ctype": "ScaleValueFrameData"
              },
              {
                "X": 0.0,
                "Y": 0.0,
                "FrameIndex": 30,
                "EasingData": {
                  "Type": 26
                },
                "ctype": "ScaleValueFrameData"
              },
              {
                "X": 0.0,
                "Y": 0.0,
                "FrameIndex": 60,
                "EasingData": {
                  "Type": 26
                },
                "ctype": "ScaleValueFrameData"
              }
            ],
            "ctype": "TimelineData"
          },
          {
            "ActionTag": 396031759,
            "Property": "Position",
            "Frames": [
              {
                "X": 832.0,
                "Y": 568.0,
                "FrameIndex": 0,
                "EasingData": {
                  "Type": 26
                },
                "ctype": "PointFrameData"
              },
              {
                "X": 480.0,
                "Y": 568.0,
                "FrameIndex": 30,
                "EasingData": {
                  "Type": 26
                },
                "ctype": "PointFrameData"
              },
              {
                "X": 832.0,
                "Y": 568.0,
                "FrameIndex": 60,
                "EasingData": {
                  "Type": 26
                },
                "ctype": "PointFrameData"
              }
            ],
            "ctype": "TimelineData"
          },
          {
            "ActionTag": 396031759,
            "Property": "Scale",
            "Frames": [
              {
                "X": 1.0,
                "Y": 1.0,
                "FrameIndex": 0,
                "EasingData": {
                  "Type": 26
                },
                "ctype": "ScaleValueFrameData"
              },
              {
                "X": 1.0,
                "Y": 1.0,
                "FrameIndex": 30,
                "EasingData": {
                  "Type": 26
                },
                "ctype": "ScaleValueFrameData"
              },
              {
                "X": 1.0,
                "Y": 1.0,
                "FrameIndex": 60,
                "EasingData": {
                  "Type": 26
                },
                "ctype": "ScaleValueFrameData"
              }
            ],
            "ctype": "TimelineData"
          },
          {
            "ActionTag": 396031759,
            "Property": "RotationSkew",
            "Frames": [
              {
                "X": 0.0,
                "Y": 0.0,
                "FrameIndex": 0,
                "EasingData": {
                  "Type": 26
                },
                "ctype": "ScaleValueFrameData"
              },
              {
                "X": 0.0,
                "Y": 0.0,
                "FrameIndex": 30,
                "EasingData": {
                  "Type": 26
                },
                "ctype": "ScaleValueFrameData"
              },
              {
                "X": 0.0,
                "Y": 0.0,
                "FrameIndex": 60,
                "EasingData": {
                  "Type": 26
                },
                "ctype": "ScaleValueFrameData"
              }
            ],
            "ctype": "TimelineData"
          }
        ],
        "ctype": "TimelineActionData"
      },
      "AnimationList": [
        {
          "StartIndex": 0,
          "EndIndex": 30,
          "Name": "wordIn",
          "ctype": "AnimationInfoData"
        },
        {
          "StartIndex": 30,
          "EndIndex": 60,
          "Name": "wordOut",
          "ctype": "AnimationInfoData"
        }
      ],
      "ObjectData": {
        "Tag": 216,
        "Children": [
          {
            "FileData": {
              "Type": "Normal",
              "Path": "FriendBg.jpg",
              "Plist": ""
            },
            "Scale9Width": 640,
            "Scale9Height": 1136,
            "AnchorPoint": {
              "ScaleX": 0.5,
              "ScaleY": 0.5
            },
            "Position": {
              "X": 320.0,
              "Y": 568.0
            },
            "Scale": {
              "ScaleX": 1.0,
              "ScaleY": 1.0
            },
            "CColor": {},
            "IconVisible": false,
            "PrePosition": {
              "X": 0.5,
              "Y": 0.5
            },
            "PreSize": {
              "X": 1.0,
              "Y": 1.0
            },
            "HorizontalEdge": "BothEdge",
            "VerticalEdge": "BothEdge",
            "Tag": 217,
            "ActionTag": -780306881,
            "Size": {
              "X": 640.0,
              "Y": 1136.0
            },
            "Name": "game_dialogbg",
            "ctype": "ImageViewObjectData"
          },
          {
            "AnchorPoint": {},
            "Position": {
              "X": 188.4819,
              "Y": 568.0
            },
            "Scale": {
              "ScaleX": 1.0,
              "ScaleY": 1.0
            },
            "CColor": {},
            "IconVisible": true,
            "PrePosition": {
              "X": 0.2945,
              "Y": 0.5
            },
            "PreSize": {
              "X": 0.0,
              "Y": 0.0
            },
            "LeftMargin": 188.4819,
            "RightMargin": 451.5181,
            "TopMargin": 568.0,
            "BottomMargin": 568.0,
            "Tag": 234,
            "Children": [
              {
                "AnchorPoint": {},
                "Position": {
                  "X": 0.0,
                  "Y": 273.73
                },
                "Scale": {
                  "ScaleX": 1.0,
                  "ScaleY": 1.0
                },
                "CColor": {},
                "IconVisible": true,
                "PrePosition": {
                  "X": 0.0,
                  "Y": 0.0
                },
                "PreSize": {
                  "X": 0.0,
                  "Y": 0.0
                },
                "TopMargin": -273.73,
                "BottomMargin": 273.73,
                "Tag": 219,
                "Children": [
                  {
                    "FileData": {
                      "Type": "Normal",
                      "Path": "BaS31.png",
                      "Plist": ""
                    },
                    "Scale9Width": 240,
                    "Scale9Height": 81,
                    "AnchorPoint": {
                      "ScaleX": 0.5,
                      "ScaleY": 0.5
                    },
                    "Position": {
                      "X": 0.0,
                      "Y": 0.0
                    },
                    "Scale": {
                      "ScaleX": 1.0,
                      "ScaleY": 1.0
                    },
                    "CColor": {},
                    "IconVisible": false,
                    "PrePosition": {
                      "X": 0.0,
                      "Y": 0.0
                    },
                    "PreSize": {
                      "X": 0.0,
                      "Y": 0.0
                    },
                    "LeftMargin": -120.0,
                    "RightMargin": -120.0,
                    "TopMargin": -40.5,
                    "BottomMargin": -40.5,
                    "Tag": 237,
                    "ActionTag": 381482378,
                    "Size": {
                      "X": 240.0,
                      "Y": 81.0
                    },
                    "Name": "Image_3",
                    "ctype": "ImageViewObjectData"
                  }
                ],
                "ActionTag": -925625205,
                "Size": {
                  "X": 0.0,
                  "Y": 0.0
                },
                "Name": "node_origin1",
                "ctype": "SingleNodeObjectData"
              },
              {
                "AnchorPoint": {},
                "Position": {
                  "X": 0.0,
                  "Y": 138.83
                },
                "Scale": {
                  "ScaleX": 1.0,
                  "ScaleY": 1.0
                },
                "CColor": {},
                "IconVisible": true,
                "PrePosition": {
                  "X": 0.0,
                  "Y": 0.0
                },
                "PreSize": {
                  "X": 0.0,
                  "Y": 0.0
                },
                "TopMargin": -138.83,
                "BottomMargin": 138.83,
                "Tag": 220,
                "Children": [
                  {
                    "FileData": {
                      "Type": "Normal",
                      "Path": "BaS31.png",
                      "Plist": ""
                    },
                    "Scale9Width": 240,
                    "Scale9Height": 81,
                    "AnchorPoint": {
                      "ScaleX": 0.5,
                      "ScaleY": 0.5
                    },
                    "Position": {
                      "X": 0.0,
                      "Y": 0.0
                    },
                    "Scale": {
                      "ScaleX": 1.0,
                      "ScaleY": 1.0
                    },
                    "CColor": {},
                    "IconVisible": false,
                    "PrePosition": {
                      "X": 0.0,
                      "Y": 0.0
                    },
                    "PreSize": {
                      "X": 0.0,
                      "Y": 0.0
                    },
                    "LeftMargin": -120.0,
                    "RightMargin": -120.0,
                    "TopMargin": -40.5,
                    "BottomMargin": -40.5,
                    "Tag": 246,
                    "ActionTag": 613279012,
                    "Size": {
                      "X": 240.0,
                      "Y": 81.0
                    },
                    "Name": "Image_3_8",
                    "ctype": "ImageViewObjectData"
                  }
                ],
                "ActionTag": 130744905,
                "Size": {
                  "X": 0.0,
                  "Y": 0.0
                },
                "Name": "node_origin1_0",
                "ctype": "SingleNodeObjectData"
              },
              {
                "AnchorPoint": {},
                "Position": {
                  "X": 0.0,
                  "Y": 0.0
                },
                "Scale": {
                  "ScaleX": 1.0,
                  "ScaleY": 1.0
                },
                "CColor": {},
                "IconVisible": true,
                "PrePosition": {
                  "X": 0.0,
                  "Y": 0.0
                },
                "PreSize": {
                  "X": 0.0,
                  "Y": 0.0
                },
                "Tag": 221,
                "Children": [
                  {
                    "FileData": {
                      "Type": "Normal",
                      "Path": "BaS31.png",
                      "Plist": ""
                    },
                    "Scale9Width": 240,
                    "Scale9Height": 81,
                    "AnchorPoint": {
                      "ScaleX": 0.5,
                      "ScaleY": 0.5
                    },
                    "Position": {
                      "X": 0.0,
                      "Y": 0.0
                    },
                    "Scale": {
                      "ScaleX": 1.0,
                      "ScaleY": 1.0
                    },
                    "CColor": {},
                    "IconVisible": false,
                    "PrePosition": {
                      "X": 0.0,
                      "Y": 0.0
                    },
                    "PreSize": {
                      "X": 0.0,
                      "Y": 0.0
                    },
                    "LeftMargin": -120.0,
                    "RightMargin": -120.0,
                    "TopMargin": -40.5,
                    "BottomMargin": -40.5,
                    "Tag": 245,
                    "ActionTag": 1667744554,
                    "Size": {
                      "X": 240.0,
                      "Y": 81.0
                    },
                    "Name": "Image_3_7",
                    "ctype": "ImageViewObjectData"
                  }
                ],
                "ActionTag": 785171563,
                "Size": {
                  "X": 0.0,
                  "Y": 0.0
                },
                "Name": "node_origin1_1",
                "ctype": "SingleNodeObjectData"
              },
              {
                "AnchorPoint": {},
                "Position": {
                  "X": 0.0,
                  "Y": -130.99
                },
                "Scale": {
                  "ScaleX": 1.0,
                  "ScaleY": 1.0
                },
                "CColor": {},
                "IconVisible": true,
                "PrePosition": {
                  "X": 0.0,
                  "Y": 0.0
                },
                "PreSize": {
                  "X": 0.0,
                  "Y": 0.0
                },
                "TopMargin": 130.99,
                "BottomMargin": -130.99,
                "Tag": 222,
                "Children": [
                  {
                    "FileData": {
                      "Type": "Normal",
                      "Path": "BaS31.png",
                      "Plist": ""
                    },
                    "Scale9Width": 240,
                    "Scale9Height": 81,
                    "AnchorPoint": {
                      "ScaleX": 0.5,
                      "ScaleY": 0.5
                    },
                    "Position": {
                      "X": 0.0,
                      "Y": 0.0
                    },
                    "Scale": {
                      "ScaleX": 1.0,
                      "ScaleY": 1.0
                    },
                    "CColor": {},
                    "IconVisible": false,
                    "PrePosition": {
                      "X": 0.0,
                      "Y": 0.0
                    },
                    "PreSize": {
                      "X": 0.0,
                      "Y": 0.0
                    },
                    "LeftMargin": -120.0,
                    "RightMargin": -120.0,
                    "TopMargin": -40.5,
                    "BottomMargin": -40.5,
                    "Tag": 244,
                    "ActionTag": 660763798,
                    "Size": {
                      "X": 240.0,
                      "Y": 81.0
                    },
                    "Name": "Image_3_6",
                    "ctype": "ImageViewObjectData"
                  }
                ],
                "ActionTag": -2099596595,
                "Size": {
                  "X": 0.0,
                  "Y": 0.0
                },
                "Name": "node_origin1_2",
                "ctype": "SingleNodeObjectData"
              },
              {
                "AnchorPoint": {},
                "Position": {
                  "X": 0.0,
                  "Y": -265.9
                },
                "Scale": {
                  "ScaleX": 1.0,
                  "ScaleY": 1.0
                },
                "CColor": {},
                "IconVisible": true,
                "PrePosition": {
                  "X": 0.0,
                  "Y": 0.0
                },
                "PreSize": {
                  "X": 0.0,
                  "Y": 0.0
                },
                "TopMargin": 265.9,
                "BottomMargin": -265.9,
                "Tag": 223,
                "Children": [
                  {
                    "FileData": {
                      "Type": "Normal",
                      "Path": "BaS31.png",
                      "Plist": ""
                    },
                    "Scale9Width": 240,
                    "Scale9Height": 81,
                    "AnchorPoint": {
                      "ScaleX": 0.5,
                      "ScaleY": 0.5
                    },
                    "Position": {
                      "X": 0.0,
                      "Y": 0.0
                    },
                    "Scale": {
                      "ScaleX": 1.0,
                      "ScaleY": 1.0
                    },
                    "CColor": {},
                    "IconVisible": false,
                    "PrePosition": {
                      "X": 0.0,
                      "Y": 0.0
                    },
                    "PreSize": {
                      "X": 0.0,
                      "Y": 0.0
                    },
                    "LeftMargin": -120.0,
                    "RightMargin": -120.0,
                    "TopMargin": -40.5,
                    "BottomMargin": -40.5,
                    "Tag": 243,
                    "ActionTag": -1905107516,
                    "Size": {
                      "X": 240.0,
                      "Y": 81.0
                    },
                    "Name": "Image_3_5",
                    "ctype": "ImageViewObjectData"
                  }
                ],
                "ActionTag": -779019251,
                "Size": {
                  "X": 0.0,
                  "Y": 0.0
                },
                "Name": "node_origin1_3",
                "ctype": "SingleNodeObjectData"
              }
            ],
            "ActionTag": 1760187276,
            "Size": {
              "X": 0.0,
              "Y": 0.0
            },
            "Name": "node_originParent",
            "ctype": "SingleNodeObjectData"
          },
          {
            "AnchorPoint": {},
            "Position": {
              "X": 448.6699,
              "Y": 568.0
            },
            "Scale": {
              "ScaleX": 1.0,
              "ScaleY": 1.0
            },
            "CColor": {},
            "IconVisible": true,
            "PrePosition": {
              "X": 0.701,
              "Y": 0.5
            },
            "PreSize": {
              "X": 0.0,
              "Y": 0.0
            },
            "LeftMargin": 448.6699,
            "RightMargin": 191.3301,
            "TopMargin": 568.0,
            "BottomMargin": 568.0,
            "Tag": 235,
            "Children": [
              {
                "AnchorPoint": {},
                "Position": {
                  "X": 0.0089,
                  "Y": 273.7334
                },
                "Scale": {
                  "ScaleX": 1.0,
                  "ScaleY": 1.0
                },
                "CColor": {},
                "IconVisible": true,
                "PrePosition": {
                  "X": 0.0,
                  "Y": 0.0
                },
                "PreSize": {
                  "X": 0.0,
                  "Y": 0.0
                },
                "LeftMargin": 0.0089,
                "RightMargin": -0.0089,
                "TopMargin": -273.7334,
                "BottomMargin": 273.7334,
                "Tag": 229,
                "Children": [
                  {
                    "FileData": {
                      "Type": "Normal",
                      "Path": "BaS31.png",
                      "Plist": ""
                    },
                    "Scale9Width": 240,
                    "Scale9Height": 81,
                    "AnchorPoint": {
                      "ScaleX": 0.5,
                      "ScaleY": 0.5
                    },
                    "Position": {
                      "X": 0.0,
                      "Y": 0.0
                    },
                    "Scale": {
                      "ScaleX": 1.0,
                      "ScaleY": 1.0
                    },
                    "CColor": {},
                    "IconVisible": false,
                    "PrePosition": {
                      "X": 0.0,
                      "Y": 0.0
                    },
                    "PreSize": {
                      "X": 0.0,
                      "Y": 0.0
                    },
                    "LeftMargin": -120.0,
                    "RightMargin": -120.0,
                    "TopMargin": -40.5,
                    "BottomMargin": -40.5,
                    "Tag": 242,
                    "ActionTag": 557404151,
                    "Size": {
                      "X": 240.0,
                      "Y": 81.0
                    },
                    "Name": "Image_3_4",
                    "ctype": "ImageViewObjectData"
                  }
                ],
                "ActionTag": 1999336824,
                "Size": {
                  "X": 0.0,
                  "Y": 0.0
                },
                "Name": "node_origin1_4",
                "ctype": "SingleNodeObjectData"
              },
              {
                "AnchorPoint": {},
                "Position": {
                  "X": 0.0089,
                  "Y": 138.8258
                },
                "Scale": {
                  "ScaleX": 1.0,
                  "ScaleY": 1.0
                },
                "CColor": {},
                "IconVisible": true,
                "PrePosition": {
                  "X": 0.0,
                  "Y": 0.0
                },
                "PreSize": {
                  "X": 0.0,
                  "Y": 0.0
                },
                "LeftMargin": 0.0089,
                "RightMargin": -0.0089,
                "TopMargin": -138.8258,
                "BottomMargin": 138.8258,
                "Tag": 230,
                "Children": [
                  {
                    "FileData": {
                      "Type": "Normal",
                      "Path": "BaS31.png",
                      "Plist": ""
                    },
                    "Scale9Width": 240,
                    "Scale9Height": 81,
                    "AnchorPoint": {
                      "ScaleX": 0.5,
                      "ScaleY": 0.5
                    },
                    "Position": {
                      "X": 0.0,
                      "Y": 0.0
                    },
                    "Scale": {
                      "ScaleX": 1.0,
                      "ScaleY": 1.0
                    },
                    "CColor": {},
                    "IconVisible": false,
                    "PrePosition": {
                      "X": 0.0,
                      "Y": 0.0
                    },
                    "PreSize": {
                      "X": 0.0,
                      "Y": 0.0
                    },
                    "LeftMargin": -120.0,
                    "RightMargin": -120.0,
                    "TopMargin": -40.5,
                    "BottomMargin": -40.5,
                    "Tag": 241,
                    "ActionTag": -1038398920,
                    "Size": {
                      "X": 240.0,
                      "Y": 81.0
                    },
                    "Name": "Image_3_3",
                    "ctype": "ImageViewObjectData"
                  }
                ],
                "ActionTag": -373037975,
                "Size": {
                  "X": 0.0,
                  "Y": 0.0
                },
                "Name": "node_origin1_0_0",
                "ctype": "SingleNodeObjectData"
              },
              {
                "AnchorPoint": {},
                "Position": {
                  "X": 0.0089,
                  "Y": 3.9196
                },
                "Scale": {
                  "ScaleX": 1.0,
                  "ScaleY": 1.0
                },
                "CColor": {},
                "IconVisible": true,
                "PrePosition": {
                  "X": 0.0,
                  "Y": 0.0
                },
                "PreSize": {
                  "X": 0.0,
                  "Y": 0.0
                },
                "LeftMargin": 0.0089,
                "RightMargin": -0.0089,
                "TopMargin": -3.9196,
                "BottomMargin": 3.9196,
                "Tag": 231,
                "Children": [
                  {
                    "FileData": {
                      "Type": "Normal",
                      "Path": "BaS31.png",
                      "Plist": ""
                    },
                    "Scale9Width": 240,
                    "Scale9Height": 81,
                    "AnchorPoint": {
                      "ScaleX": 0.5,
                      "ScaleY": 0.5
                    },
                    "Position": {
                      "X": 0.0,
                      "Y": 0.0
                    },
                    "Scale": {
                      "ScaleX": 1.0,
                      "ScaleY": 1.0
                    },
                    "CColor": {},
                    "IconVisible": false,
                    "PrePosition": {
                      "X": 0.0,
                      "Y": 0.0
                    },
                    "PreSize": {
                      "X": 0.0,
                      "Y": 0.0
                    },
                    "LeftMargin": -120.0,
                    "RightMargin": -120.0,
                    "TopMargin": -40.5,
                    "BottomMargin": -40.5,
                    "Tag": 240,
                    "ActionTag": 476092268,
                    "Size": {
                      "X": 240.0,
                      "Y": 81.0
                    },
                    "Name": "Image_3_2",
                    "ctype": "ImageViewObjectData"
                  }
                ],
                "ActionTag": 179404633,
                "Size": {
                  "X": 0.0,
                  "Y": 0.0
                },
                "Name": "node_origin1_1_0",
                "ctype": "SingleNodeObjectData"
              },
              {
                "AnchorPoint": {},
                "Position": {
                  "X": 0.0089,
                  "Y": -130.9885
                },
                "Scale": {
                  "ScaleX": 1.0,
                  "ScaleY": 1.0
                },
                "CColor": {},
                "IconVisible": true,
                "PrePosition": {
                  "X": 0.0,
                  "Y": 0.0
                },
                "PreSize": {
                  "X": 0.0,
                  "Y": 0.0
                },
                "LeftMargin": 0.0089,
                "RightMargin": -0.0089,
                "TopMargin": 130.9885,
                "BottomMargin": -130.9885,
                "Tag": 232,
                "Children": [
                  {
                    "FileData": {
                      "Type": "Normal",
                      "Path": "BaS31.png",
                      "Plist": ""
                    },
                    "Scale9Width": 240,
                    "Scale9Height": 81,
                    "AnchorPoint": {
                      "ScaleX": 0.5,
                      "ScaleY": 0.5
                    },
                    "Position": {
                      "X": 0.0,
                      "Y": 0.0
                    },
                    "Scale": {
                      "ScaleX": 1.0,
                      "ScaleY": 1.0
                    },
                    "CColor": {},
                    "IconVisible": false,
                    "PrePosition": {
                      "X": 0.0,
                      "Y": 0.0
                    },
                    "PreSize": {
                      "X": 0.0,
                      "Y": 0.0
                    },
                    "LeftMargin": -120.0,
                    "RightMargin": -120.0,
                    "TopMargin": -40.5,
                    "BottomMargin": -40.5,
                    "Tag": 239,
                    "ActionTag": -1278714226,
                    "Size": {
                      "X": 240.0,
                      "Y": 81.0
                    },
                    "Name": "Image_3_1",
                    "ctype": "ImageViewObjectData"
                  }
                ],
                "ActionTag": -1770592701,
                "Size": {
                  "X": 0.0,
                  "Y": 0.0
                },
                "Name": "node_origin1_2_0",
                "ctype": "SingleNodeObjectData"
              },
              {
                "AnchorPoint": {},
                "Position": {
                  "X": 0.0089,
                  "Y": -265.8955
                },
                "Scale": {
                  "ScaleX": 1.0,
                  "ScaleY": 1.0
                },
                "CColor": {},
                "IconVisible": true,
                "PrePosition": {
                  "X": 0.0,
                  "Y": 0.0
                },
                "PreSize": {
                  "X": 0.0,
                  "Y": 0.0
                },
                "LeftMargin": 0.0089,
                "RightMargin": -0.0089,
                "TopMargin": 265.8955,
                "BottomMargin": -265.8955,
                "Tag": 233,
                "Children": [
                  {
                    "FileData": {
                      "Type": "Normal",
                      "Path": "BaS31.png",
                      "Plist": ""
                    },
                    "Scale9Width": 240,
                    "Scale9Height": 81,
                    "AnchorPoint": {
                      "ScaleX": 0.5,
                      "ScaleY": 0.5
                    },
                    "Position": {
                      "X": 0.0,
                      "Y": 0.0
                    },
                    "Scale": {
                      "ScaleX": 1.0,
                      "ScaleY": 1.0
                    },
                    "CColor": {},
                    "IconVisible": false,
                    "PrePosition": {
                      "X": 0.0,
                      "Y": 0.0
                    },
                    "PreSize": {
                      "X": 0.0,
                      "Y": 0.0
                    },
                    "LeftMargin": -120.0,
                    "RightMargin": -120.0,
                    "TopMargin": -40.5,
                    "BottomMargin": -40.5,
                    "Tag": 238,
                    "ActionTag": -897616107,
                    "Size": {
                      "X": 240.0,
                      "Y": 81.0
                    },
                    "Name": "Image_3_0",
                    "ctype": "ImageViewObjectData"
                  }
                ],
                "ActionTag": 966553577,
                "Size": {
                  "X": 0.0,
                  "Y": 0.0
                },
                "Name": "node_origin1_3_0",
                "ctype": "SingleNodeObjectData"
              }
            ],
            "ActionTag": 396031759,
            "Size": {
              "X": 0.0,
              "Y": 0.0
            },
            "Name": "node_targetParent",
            "ctype": "SingleNodeObjectData"
          }
        ],
        "Size": {
          "X": 640.0,
          "Y": 1136.0
        },
        "Name": "Layer",
        "ctype": "LayerObjectData"
      },
      "UsedResources": [
        "BaS31.png",
        "FriendBg.jpg"
      ],
      "ctype": "GameFileData"
    }
  },
  "Type": "Layer"
}